EESchema Schematic File Version 4
EELAYER 30 0
EELAYER END
$Descr A4 11693 8268
encoding utf-8
Sheet 1 1
Title ""
Date ""
Rev ""
Comp ""
Comment1 ""
Comment2 ""
Comment3 ""
Comment4 ""
$EndDescr
NoConn ~ 2750 1150
$Comp
L power:GND #PWR0101
U 1 1 605DB74B
P 2250 5450
F 0 "#PWR0101" H 2250 5200 50  0001 C CNN
F 1 "GND" H 2255 5277 50  0000 C CNN
F 2 "" H 2250 5450 50  0001 C CNN
F 3 "" H 2250 5450 50  0001 C CNN
	1    2250 5450
	1    0    0    -1  
$EndComp
$Comp
L power:GND #PWR0102
U 1 1 605DC350
P 2400 5450
F 0 "#PWR0102" H 2400 5200 50  0001 C CNN
F 1 "GND" H 2405 5277 50  0000 C CNN
F 2 "" H 2400 5450 50  0001 C CNN
F 3 "" H 2400 5450 50  0001 C CNN
	1    2400 5450
	1    0    0    -1  
$EndComp
$Comp
L power:GND #PWR0103
U 1 1 605DC6ED
P 2550 5450
F 0 "#PWR0103" H 2550 5200 50  0001 C CNN
F 1 "GND" H 2555 5277 50  0000 C CNN
F 2 "" H 2550 5450 50  0001 C CNN
F 3 "" H 2550 5450 50  0001 C CNN
	1    2550 5450
	1    0    0    -1  
$EndComp
$Comp
L power:GND #PWR0104
U 1 1 605DCA27
P 2750 5450
F 0 "#PWR0104" H 2750 5200 50  0001 C CNN
F 1 "GND" H 2755 5277 50  0000 C CNN
F 2 "" H 2750 5450 50  0001 C CNN
F 3 "" H 2750 5450 50  0001 C CNN
	1    2750 5450
	1    0    0    -1  
$EndComp
$Comp
L power:GND #PWR0105
U 1 1 605DCD2C
P 2900 5450
F 0 "#PWR0105" H 2900 5200 50  0001 C CNN
F 1 "GND" H 2905 5277 50  0000 C CNN
F 2 "" H 2900 5450 50  0001 C CNN
F 3 "" H 2900 5450 50  0001 C CNN
	1    2900 5450
	1    0    0    -1  
$EndComp
$Comp
L power:GND #PWR0106
U 1 1 605DD029
P 3050 5450
F 0 "#PWR0106" H 3050 5200 50  0001 C CNN
F 1 "GND" H 3055 5277 50  0000 C CNN
F 2 "" H 3050 5450 50  0001 C CNN
F 3 "" H 3050 5450 50  0001 C CNN
	1    3050 5450
	1    0    0    -1  
$EndComp
$Comp
L power:+5V #PWR0107
U 1 1 605DE238
P 2250 1150
F 0 "#PWR0107" H 2250 1000 50  0001 C CNN
F 1 "+5V" H 2265 1323 50  0000 C CNN
F 2 "" H 2250 1150 50  0001 C CNN
F 3 "" H 2250 1150 50  0001 C CNN
	1    2250 1150
	1    0    0    -1  
$EndComp
$Comp
L power:+5V #PWR0108
U 1 1 605DE61B
P 2400 1150
F 0 "#PWR0108" H 2400 1000 50  0001 C CNN
F 1 "+5V" H 2415 1323 50  0000 C CNN
F 2 "" H 2400 1150 50  0001 C CNN
F 3 "" H 2400 1150 50  0001 C CNN
	1    2400 1150
	1    0    0    -1  
$EndComp
$Comp
L power:+5V #PWR0109
U 1 1 605DE9CC
P 2550 1150
F 0 "#PWR0109" H 2550 1000 50  0001 C CNN
F 1 "+5V" H 2565 1323 50  0000 C CNN
F 2 "" H 2550 1150 50  0001 C CNN
F 3 "" H 2550 1150 50  0001 C CNN
	1    2550 1150
	1    0    0    -1  
$EndComp
$Comp
L power:+5V #PWR0110
U 1 1 605DED14
P 3050 1150
F 0 "#PWR0110" H 3050 1000 50  0001 C CNN
F 1 "+5V" H 3065 1323 50  0000 C CNN
F 2 "" H 3050 1150 50  0001 C CNN
F 3 "" H 3050 1150 50  0001 C CNN
	1    3050 1150
	1    0    0    -1  
$EndComp
Text Label 1000 2000 0    50   ~ 0
TXD1
Text Label 1000 2100 0    50   ~ 0
RXD1
Text Label 1000 2200 0    50   ~ 0
ESP_EN
Wire Wire Line
	1000 2000 1450 2000
Wire Wire Line
	1000 2100 1450 2100
Wire Wire Line
	1000 2200 1450 2200
Wire Wire Line
	8850 2650 9300 2650
Wire Wire Line
	8850 2550 9300 2550
Wire Wire Line
	8850 2450 9300 2450
Wire Wire Line
	8850 2350 9300 2350
Wire Wire Line
	8850 2250 9300 2250
Wire Wire Line
	8850 2150 9300 2150
Wire Wire Line
	8850 2050 9300 2050
Wire Wire Line
	8850 1950 9300 1950
Wire Wire Line
	8850 1850 9300 1850
Wire Wire Line
	8850 1750 9300 1750
Text Label 9300 2150 2    50   ~ 0
GPIO33
Text Label 9300 2250 2    50   ~ 0
GPIO32
Text Label 9300 2350 2    50   ~ 0
SCL
Text Label 9300 2450 2    50   ~ 0
SPI_MISO
Text Label 9300 2550 2    50   ~ 0
SPI_SCLK
Text Label 9300 2650 2    50   ~ 0
SDA
Text Label 9300 2050 2    50   ~ 0
GPI34
Text Label 9300 1950 2    50   ~ 0
GPI35
Text Label 9300 1850 2    50   ~ 0
RXD1
Text Label 9300 1750 2    50   ~ 0
GPI39
Wire Wire Line
	6950 2650 7350 2650
Wire Wire Line
	6950 2550 7350 2550
Wire Wire Line
	6950 2450 7350 2450
Wire Wire Line
	6950 2350 7350 2350
Wire Wire Line
	6950 2250 7350 2250
Wire Wire Line
	6950 2150 7350 2150
Wire Wire Line
	6950 2050 7350 2050
Wire Wire Line
	6800 1950 7350 1950
Wire Wire Line
	7000 1850 7350 1850
Wire Wire Line
	7200 1750 7350 1750
Text Label 6950 2650 0    50   ~ 0
SPI_CS
Text Label 6950 2550 0    50   ~ 0
TXD1
Text Label 6950 2450 0    50   ~ 0
RXD0
Text Label 6950 2350 0    50   ~ 0
SPI_MOSI
Text Label 6950 2250 0    50   ~ 0
TXD0
Text Label 6950 2150 0    50   ~ 0
GPIO0
Text Label 6950 2050 0    50   ~ 0
ESP_EN
$Comp
L power:GND #PWR0114
U 1 1 605E5605
P 6800 1950
F 0 "#PWR0114" H 6800 1700 50  0001 C CNN
F 1 "GND" H 6805 1777 50  0000 C CNN
F 2 "" H 6800 1950 50  0001 C CNN
F 3 "" H 6800 1950 50  0001 C CNN
	1    6800 1950
	1    0    0    -1  
$EndComp
$Comp
L power:+3V3 #PWR0113
U 1 1 605E3827
P 7000 1850
F 0 "#PWR0113" H 7000 1700 50  0001 C CNN
F 1 "+3V3" H 7015 2023 50  0000 C CNN
F 2 "" H 7000 1850 50  0001 C CNN
F 3 "" H 7000 1850 50  0001 C CNN
	1    7000 1850
	1    0    0    -1  
$EndComp
$Comp
L power:+5V #PWR0112
U 1 1 605E21BA
P 7200 1750
F 0 "#PWR0112" H 7200 1600 50  0001 C CNN
F 1 "+5V" H 7215 1923 50  0000 C CNN
F 2 "" H 7200 1750 50  0001 C CNN
F 3 "" H 7200 1750 50  0001 C CNN
	1    7200 1750
	1    0    0    -1  
$EndComp
$Comp
L Olimex:Olimex_ESP32-POE_extensions MOD2
U 1 1 6053C239
P 8100 2200
F 0 "MOD2" H 8100 2915 50  0000 C CNN
F 1 "Olimex_ESP32-POE_extensions" H 8100 2824 50  0000 C CNN
F 2 "Olimex boards:Olimex_ESP32-POE_extensions_SMD" H 8100 2200 50  0001 C CNN
F 3 "" H 8100 2200 50  0001 C CNN
	1    8100 2200
	1    0    0    -1  
$EndComp
$Comp
L Sipeed_Maix_modules:M1_Dock MOD1
U 1 1 605D6A6B
P 2650 3300
F 0 "MOD1" H 2600 5800 50  0000 C CNN
F 1 "M1_Dock" H 2600 5700 50  0000 C CNN
F 2 "Sipeed Maix modules:Sipeed_Maix_Dock_SMD" H 2650 3300 50  0001 C CNN
F 3 "" H 2650 3300 50  0001 C CNN
	1    2650 3300
	1    0    0    -1  
$EndComp
$Comp
L power:+3V3 #PWR0111
U 1 1 6054405F
P 2900 1150
F 0 "#PWR0111" H 2900 1000 50  0001 C CNN
F 1 "+3V3" H 2915 1323 50  0000 C CNN
F 2 "" H 2900 1150 50  0001 C CNN
F 3 "" H 2900 1150 50  0001 C CNN
	1    2900 1150
	1    0    0    -1  
$EndComp
Text Label 1000 1350 0    50   ~ 0
SPI_CS
Text Label 1000 1450 0    50   ~ 0
SPI_SCLK
Text Label 1000 1550 0    50   ~ 0
SPI_MISO
Text Label 1000 1650 0    50   ~ 0
SPI_MOSI
Wire Wire Line
	1000 1350 1450 1350
Wire Wire Line
	1450 1450 1000 1450
Wire Wire Line
	1450 1550 1000 1550
Wire Wire Line
	1450 1650 1000 1650
$EndSCHEMATC
