EESchema Schematic File Version 4
EELAYER 30 0
EELAYER END
$Descr A4 11693 8268
encoding utf-8
Sheet 1 1
Title ""
Date ""
Rev ""
Comp ""
Comment1 ""
Comment2 ""
Comment3 ""
Comment4 ""
$EndDescr
$Comp
L Sipeed_Maix_modules:Sipeed_Maix_Bit MOD1
U 1 1 60531276
P 2700 2500
F 0 "MOD1" H 2250 1400 50  0000 C CNN
F 1 "Sipeed_Maix_Bit" H 3100 1400 50  0000 C CNN
F 2 "Sipeed Maix modules:Sipeed_Maix_Bit_SMD" H 2650 2500 50  0001 C CNN
F 3 "~" H 2150 3000 50  0001 C CNN
	1    2700 2500
	1    0    0    -1  
$EndComp
$Comp
L Bit-Olimex-ESP32-POE-rescue:Olimex_ESP32-POE_extensions-Sipeed_Maix_modules MOD2
U 1 1 60531C34
P 7700 2400
F 0 "MOD2" H 7700 1900 50  0000 C CNN
F 1 "Olimex_ESP32-POE_extensions-Sipeed_Maix_modules" H 7700 1800 50  0000 C CNN
F 2 "Olimex boards:Olimex_ESP32-POE_extensions_SMD" H 7700 2400 50  0001 C CNN
F 3 "" H 7700 2400 50  0001 C CNN
	1    7700 2400
	1    0    0    -1  
$EndComp
Text Label 1550 2200 0    50   ~ 0
WIFI_TX
Text Label 1550 2300 0    50   ~ 0
WIFI_RX
Text Label 1550 2400 0    50   ~ 0
WIFI_EN
Wire Wire Line
	1550 2200 2000 2200
Wire Wire Line
	1550 2300 2000 2300
Wire Wire Line
	1550 2400 2000 2400
$Comp
L power:GND #PWR0101
U 1 1 605354E3
P 2700 3650
F 0 "#PWR0101" H 2700 3400 50  0001 C CNN
F 1 "GND" H 2705 3477 50  0000 C CNN
F 2 "" H 2700 3650 50  0001 C CNN
F 3 "" H 2700 3650 50  0001 C CNN
	1    2700 3650
	1    0    0    -1  
$EndComp
$Comp
L power:+3.3V #PWR0102
U 1 1 60535A26
P 2650 1350
F 0 "#PWR0102" H 2650 1200 50  0001 C CNN
F 1 "+3.3V" H 2665 1523 50  0000 C CNN
F 2 "" H 2650 1350 50  0001 C CNN
F 3 "" H 2650 1350 50  0001 C CNN
	1    2650 1350
	1    0    0    -1  
$EndComp
$Comp
L power:+5V #PWR0103
U 1 1 60535F29
P 2800 1350
F 0 "#PWR0103" H 2800 1200 50  0001 C CNN
F 1 "+5V" H 2815 1523 50  0000 C CNN
F 2 "" H 2800 1350 50  0001 C CNN
F 3 "" H 2800 1350 50  0001 C CNN
	1    2800 1350
	1    0    0    -1  
$EndComp
$Comp
L power:+5V #PWR0104
U 1 1 60537408
P 6850 1950
F 0 "#PWR0104" H 6850 1800 50  0001 C CNN
F 1 "+5V" H 6865 2123 50  0000 C CNN
F 2 "" H 6850 1950 50  0001 C CNN
F 3 "" H 6850 1950 50  0001 C CNN
	1    6850 1950
	1    0    0    -1  
$EndComp
$Comp
L power:+3.3V #PWR0105
U 1 1 60538054
P 6600 2050
F 0 "#PWR0105" H 6600 1900 50  0001 C CNN
F 1 "+3.3V" H 6615 2223 50  0000 C CNN
F 2 "" H 6600 2050 50  0001 C CNN
F 3 "" H 6600 2050 50  0001 C CNN
	1    6600 2050
	1    0    0    -1  
$EndComp
$Comp
L power:GND #PWR0106
U 1 1 60538958
P 6350 2150
F 0 "#PWR0106" H 6350 1900 50  0001 C CNN
F 1 "GND" H 6355 1977 50  0000 C CNN
F 2 "" H 6350 2150 50  0001 C CNN
F 3 "" H 6350 2150 50  0001 C CNN
	1    6350 2150
	1    0    0    -1  
$EndComp
Text Label 6500 2250 0    50   ~ 0
WIFI_EN
Text Label 6500 2750 0    50   ~ 0
WIFI_TX
Text Label 8900 2050 2    50   ~ 0
WIFI_RX
Wire Wire Line
	8900 2050 8450 2050
Wire Wire Line
	6850 1950 6950 1950
Wire Wire Line
	6600 2050 6950 2050
Wire Wire Line
	6350 2150 6950 2150
Wire Wire Line
	6500 2250 6950 2250
Wire Wire Line
	6500 2750 6950 2750
Text Label 6500 2850 0    50   ~ 0
SPI_CS
Text Label 6500 2550 0    50   ~ 0
SPI_MOSI
Text Label 8900 2650 2    50   ~ 0
SPI_MISO
Text Label 8900 2750 2    50   ~ 0
SPI_SCLK
Wire Wire Line
	8900 2650 8450 2650
Wire Wire Line
	8900 2750 8450 2750
Wire Wire Line
	6950 2550 6500 2550
Wire Wire Line
	6950 2850 6500 2850
Text Label 1550 1600 0    50   ~ 0
SPI_CS
Text Label 1550 1700 0    50   ~ 0
SPI_SCLK
Text Label 1550 1800 0    50   ~ 0
SPI_MISO
Text Label 1550 1900 0    50   ~ 0
SPI_MOSI
Wire Wire Line
	2000 1600 1550 1600
Wire Wire Line
	2000 1700 1550 1700
Wire Wire Line
	2000 1800 1550 1800
Wire Wire Line
	2000 1900 1550 1900
$EndSCHEMATC
